tidyverse
…
http://dplyr.tidyverse.org/ dplyr cheatsheet

dplyr

Load csv (readr)

tweets <- read_csv("../data/CharlotteTweets20Sample.csv") # readr function

select(tweets, body, postedTime, geo.type, point_long, point_lat) # view relevant columns

## # A tibble: 47,274 x 5
##    body                  postedTime          geo.type point_long point_lat
##    <chr>                 <dttm>              <chr>         <dbl>     <dbl>
##  1 Treon to WR is a rea 2016-02-05 17:23:34 Polygon        NA        NA  
##  2 primus #vsco #vscoca 2016-01-28 00:20:32 Point          35.2     -80.8
##  3 WOAH!!!!!!            2015-12-05 01:05:22 Polygon        NA        NA  
##  4 clear -&gt; mostly c 2015-12-12 04:54:38 Point          35.5     -80.6
##  5 Slutty 7 keeps me up 2016-01-17 07:01:15 Polygon        NA        NA  
##  6 Need to grab a quick 2015-12-10 19:16:02 Point          35.1     -80.8
##  7 @AaronCarpenter #Mag 2016-01-20 01:24:54 Polygon        NA        NA  
##  8 @The_BigKahunaa beca 2015-12-17 23:25:26 Polygon        NA        NA  
##  9 @KyleBusch @KBMteam  2016-01-27 21:35:25 Polygon        NA        NA  
## 10 Praying for my 704 f 2015-12-24 20:23:19 Polygon        NA        NA  
## # ... with 47,264 more rows
…
